<?xml version="1.0" encoding="utf-8"?>
<!-- Generator: Adobe Illustrator 22.1.0, SVG Export Plug-In . SVG Version: 6.00 Build 0)  -->
<svg version="1.1" id="Capa_1" xmlns="http://www.w3.org/2000/svg" xmlns:xlink="http://www.w3.org/1999/xlink" x="0px" y="0px"
	 viewBox="0 0 484.5 484.5" style="enable-background:new 0 0 484.5 484.5;" xml:space="preserve">
<style type="text/css">
	.st0{fill:#00823F;}
</style>
<g>
	<g id="label">
		<path class="st0" d="M372.3,84.1c-7.6-12.8-23-20.4-40.8-20.4H51c-28,0-51,22.9-51,51v255c0,28,23,51,51,51h280.5
			c17.9,0,33.1-7.6,40.8-20.4l112.2-158.1L372.3,84.1z"/>
	</g>
</g>
</svg>
